<?xml version="1.0" encoding="utf-8"?>
<!-- Generator: Adobe Illustrator 26.0.3, SVG Export Plug-In . SVG Version: 6.00 Build 0)  -->
<svg version="1.1" id="Calque_1" xmlns="http://www.w3.org/2000/svg" xmlns:xlink="http://www.w3.org/1999/xlink" x="0px" y="0px"
	 viewBox="0 0 42 42" enable-background="new 0 0 42 42" xml:space="preserve">
<path fill-rule="evenodd" clip-rule="evenodd" fill="#767486" d="M9.5,7h23C33.9,7,35,8.1,35,9.5v23c0,1.4-1.1,2.5-2.5,2.5h-23
	C8.1,35,7,33.9,7,32.5v-23C7,8.1,8.1,7,9.5,7z M16,16c0.4-0.4,1-0.4,1.4,0l3.5,3.5l3.5-3.5c0.4-0.4,1-0.4,1.4,0c0.4,0.4,0.4,1,0,1.4
	L22.4,21l3.5,3.5c0.4,0.4,0.4,1,0,1.4s-1,0.4-1.4,0L21,22.4l-3.5,3.5c-0.4,0.4-1,0.4-1.4,0c-0.4-0.4-0.4-1,0-1.4l3.5-3.5L16,17.5
	C15.7,17.1,15.7,16.4,16,16z"/>
</svg>
