<?xml version="1.0" encoding="utf-8"?>
<!-- Generator: Adobe Illustrator 26.0.3, SVG Export Plug-In . SVG Version: 6.00 Build 0)  -->
<svg version="1.1" id="Calque_1" xmlns="http://www.w3.org/2000/svg" xmlns:xlink="http://www.w3.org/1999/xlink" x="0px" y="0px"
	 viewBox="0 0 42 42" enable-background="new 0 0 42 42" xml:space="preserve">
<path fill-rule="evenodd" clip-rule="evenodd" fill="#767486" d="M32.5,7h-23C8.1,7,7,8.1,7,9.5v23C7,33.9,8.1,35,9.5,35h23
	c1.4,0,2.5-1.1,2.5-2.5v-23C35,8.1,33.9,7,32.5,7z M27.7,15.7c-0.4-0.4-1-0.4-1.4,0l-8.5,8.5l-2.1-2.1c-0.4-0.4-1-0.4-1.4,0
	c-0.4,0.4-0.4,1,0,1.4l2.8,2.8c0.2,0.2,0.5,0.3,0.7,0.3c0.3,0,0.5-0.1,0.7-0.3l9.2-9.2C28.1,16.7,28.1,16.1,27.7,15.7z"/>
</svg>
